{
  "xmpp_config": {
    "xid": "fb927d3a02aad2a9248c4f02b25b4391",
    "servers": [
      "https://xmpp-cchat.tiscali.it/http-bind/"
    ],
    "domain": "xmpp-cchat.tiscali.it",
    "token": "6062d65ac215ac00f66ad160nloHc"
  },
  "localization": {
    "common": {
      "buttons": {
        "print": "stampa",
        "refuse": "No",
        "save": "salva",
        "send": "invia",
        "accept": "Si"
      },
      "footer": [
        {
          "webtrekk": "http://tiscaliadv01.webtrekk.net/630058339171838/wt?p=433,&amp;tz=2&amp;ct=chat-assistenza-tecnica&amp;la=it&amp;eor=1",
          "label": "Assistenza",
          "url": "http://assistenza.tiscali.it"
        }
      ],
      "composer": "Scrivi un messaggio",
      "title_chat_minimized": "Riprendi chat",
      "like_customer": "Sei soddisfatto della assistenza ricevuta?",
      "save_print_conversation": "Ti ringraziamo per averci contattato."
    },
    "service": {
      "mytiscali_bot": {
        "toast": "Ti serve aiuto?",
        "chat": "Entra in chat",
        "sitofono": "Ti chiamiamo noi",
        "header": {
          "title_chat_opened": "",
          "logoType": "full",
          "title": ""
        },
        "marketingArea": [],
        "disclaimer": "Entra in chat",
        "sections": {
          "customercare_new_customer": "Non sono cliente",
          "customercare": "Sono già cliente"
        },
        "main_buttons": [
          {
            "label": "Entra in chat",
            "type": "chat"
          },
          {
            "label": "Ti chiamiamo noi",
            "type": "sitofono"
          }
        ]
      }
    }
  },
  "pushable": false,
  "service": "mytiscali_bot",
  "services": {
    "mytiscali_bot": {
      "chatbot": {
        "dialog": "helpdeskDialog",
        "nlp": true,
        "knowledgeBase": true,
        "api_key": "viPI3Yz6K9Q.szugLwt6mnppyUprRErLggoh4d2--2Fgls9mw5B78XY",
        "id": "tiscali_chat_bot",
        "api_url_activities": "https://directline.botframework.com/v3/directline/conversations/",
        "history": {
          "bearerAuth": "ea8044897740458686a928c1688f73af",
          "url": "https://chatbot.tiscali.it/chatbot/activities"
        },
        "display_name": "Tiscali Chatbot",
        "enabled": true
      },
      "title": "Tiscali Help Desk",
      "sections": [
        {
          "ticketing": "freshdesk",
          "name": "support_amm",
          "sticky_chat": true,
          "groups": [
            "support_amministrativo"
          ],
          "intent": "Amministrativa",
          "display_message_suffix": "_support"
        },
        {
          "ticketing": "freshdesk",
          "name": "support_comm",
          "sticky_chat": true,
          "groups": [
            "support_commerciale"
          ],
          "intent": "Commerciale",
          "display_message_suffix": "_support"
        },
        {
          "ticketing": "freshdesk",
          "name": "support_mvno",
          "sticky_chat": true,
          "groups": [
            "support_retemobile"
          ],
          "intent": "Rete Mobile",
          "display_message_suffix": "_support"
        },
        {
          "ticketing": "freshdesk",
          "name": "retention",
          "sticky_chat": true,
          "groups": [
            "support_retention"
          ],
          "intent": "Disdetta",
          "display_message_suffix": "_support"
        }
      ]
    }
  },
  "userid": "440478471",
  "status": "IDLE"
}