{
  "node": false,
  "user": {
    "Id": "5542",
    "ParentId": null,
    "PartnerEntityId": "7230",
    "UserName": "vasile.spatar@gmail.com",
    "Password": "22e34618360bc315f267e23a21cda119",
    "Email": "vasile.spatar@gmail.com",
    "Name": "PF SPATAR VASILE",
    "CUI": "1590818120695",
    "CNP": null,
    "RegisterNumber": "CJ073557",
    "Localitate": "Cluj-Napoca",
    "IdJudet": "14",
    "Mobil": "0040770643282",
    "TelefonFix": null,
    "Fax": null,
    "Enabled": "1",
    "CreationDate": "2020-07-20 16:10:54.000",
    "CreationUserId": "4345",
    "LastUpdate": "2020-08-18 10:58:34.000",
    "LastUpdateUserId": null,
    "PasswordReset": null,
    "PasswordResetIP": null,
    "ReceiveSMS": "1",
    "ReceiveEmail": "1",
    "DueDays": "5",
    "IsAgent": "0",
    "ParentAgentId": null,
    "OffDays": null,
    "LoginAttempts": null,
    "UnblockingDate": null,
    "ShowConsumption": "0",
    "IsPartner": "0",
    "IsProducer": "0",
    "ParentPartnerId": null,
    "ParentProducerId": null,
    "SessionId": true,
    "ExSessionId": null,
    "NotifExpirareCtr": "0",
    "LastActivity": "2021-01-19 09:04:57.760",
    "IsFrontDesk": "0",
    "ParentFrontDeskId": null,
    "Functia": null,
    "RepartizareComision": "0",
    "UnblockToken": null,
    "ShowRedMenu": null,
    "PasswordStartDate": "2020-07-26",
    "PasswordEndDate": null,
    "PasswordChunks": "[\"e5582ff234c3a744a5659aa4f79bccf4\",\"d1cd97335fadb4955dacd345394ea377\",\"b84c7af9d827d3aee2535ef6fcd4f936\",\"99f1466a1931ff4f397b3c1376a51fa1\",\"87aff3740c57bbc521e78c19d3d6e559\",\"d26474ed4848a45e41c1b902a20e10d8\",\"116b759c15cff110263e11c1f6c017fc\",\"12a32086df60de694be05b51389924fe\"]",
    "CanEditSerbiaTemplate": "0",
    "DaysBeforeDue": null,
    "CanDeleteQmail": null,
    "partener": {
      "IdParteneri": "7230",
      "Nume": "PF SPATAR VASILE",
      "Cui": "1590818120695",
      "NrRegCom": "CJ073557",
      "IdTipParteneri": "1",
      "IdTara": "38",
      "IdJudet": "14",
      "Localitate": "Cluj-Napoca",
      "Strada": "Dunarii",
      "Numar": "69",
      "Scara": "2",
      "Bloc": "S23",
      "Apartament": "15",
      "ObservatiiAdresa": "",
      "CodEIC": "",
      "PRE": "0",
      "IdParteneriPRE": null,
      "TaxareInversa": "0",
      "IdTipCategorieParteneri": "1",
      "IdUser": "29",
      "IdUserWeb": "5542",
      "CreareUserCRM": "2",
      "AdresaEmail": "vasile.spatar@gmail.com",
      "IdPRE": null,
      "NumarMobil": "0040770643282",
      "TVAlaIncasare": "0",
      "ChangedAddress": "1",
      "CUI_numeric": "1590818120695",
      "CUI_non_numeric": "",
      "IdTipOrganizareJuridica": "2",
      "CodPostal": "400593",
      "BusinessPartnerCode": "3007230",
      "IdSubTipOrganizareJuridica": "6",
      "Etaj": "",
      "CI_Emitent": null,
      "CI_ValabilDeLa": null,
      "CI_ValabilPanaLa": null,
      "CodOmepa": null,
      "EsteEFET": "0",
      "CodRecomandator": null,
      "IdPartenerRecomandator": null,
      "DataRecomandare": null,
      "CorrespondenceAddressState": "1",
      "CodEICGN": "",
      "PID": "D4FCA61B97AB21DA6F8476D21ADD819CA37704B9B6FF99D5D0035106B9944DDD"
    },
    "idJudet": {
      "IdJudete": "14",
      "Judet": "Cluj",
      "IdTari": "38",
      "Prescurtare": "CJ",
      "DenumireFaraDiacritice": "Cluj",
      "IdRegiune": "6"
    }
  }
}